<?xml version="1.0" encoding="UTF-8"?>
<svg width="17px" height="13px" viewBox="0 0 17 13" version="1.1" xmlns="http://www.w3.org/2000/svg" xmlns:xlink="http://www.w3.org/1999/xlink">
    <!-- Generator: Sketch 61.2 (89653) - https://sketch.com -->
    <title>email-icon</title>
    <desc>Created with Sketch.</desc>
    <g id="Landings" stroke="none" stroke-width="1" fill="none" fill-rule="evenodd">
        <path d="M17,4.19170923 L17,11.5225193 C17,11.9290553 16.8515071,12.2765399 16.5541557,12.5659433 C16.256904,12.8553468 15.899544,13 15.4822087,13 L1.51789096,13 C1.100456,13 0.743062817,12.8553468 0.445844336,12.5659433 C0.1485594,12.2766369 0,11.9290229 0,11.5225193 L0,4.19170923 C0.278278902,4.4932722 0.597660014,4.76120242 0.958243017,4.99495011 C3.24763939,6.50910348 4.81922572,7.57105791 5.67306847,8.180393 C6.03351856,8.43881549 6.32605199,8.64054738 6.55050261,8.78510357 C6.77501969,8.92975678 7.07389954,9.07748222 7.44697602,9.2282152 C7.8200525,9.37917455 8.16794266,9.45442786 8.49048037,9.45442786 L8.50968577,9.45442786 C8.83228993,9.45442786 9.17998073,9.37917455 9.55305721,9.2282152 C9.9262666,9.07748222 10.2249471,8.92975678 10.4495306,8.78510357 C10.6741141,8.64054738 10.9665479,8.43881549 11.3270312,8.180393 C12.4020351,7.42320312 13.9770106,6.36131337 16.0511935,4.99495011 C16.4118762,4.75496096 16.7280011,4.48703074 17,4.19170923 Z M15.4820758,0 C15.8930314,0 16.2488297,0.144588534 16.549238,0.433927297 C16.8496796,0.723201381 16.9999668,1.07100941 16.9999668,1.47731903 C16.9999668,1.9635388 16.8450942,2.42828535 16.5350167,2.87129996 C16.2251719,3.31450861 15.839469,3.69313588 15.3778084,4.00692308 C12.9999277,5.6135342 11.5198826,6.61381779 10.9381385,7.00767683 C10.8749069,7.05084965 10.7404027,7.14456863 10.5349249,7.2893512 C10.3293141,7.43410143 10.1586586,7.55107229 10.0226591,7.64029613 C9.88665962,7.72945528 9.72225078,7.82941573 9.52939935,7.94030682 C9.3366476,8.05087453 9.15462827,8.13421263 8.98393947,8.18931861 C8.81315099,8.24484501 8.65498889,8.272398 8.50955286,8.272398 L8.49044714,8.272398 C8.34501111,8.272398 8.18691547,8.24487735 8.01612698,8.18931861 C7.84537173,8.13421263 7.66351854,8.05097154 7.47060065,7.94030682 C7.27761631,7.82954509 7.11320747,7.72948762 6.97720801,7.64029613 C6.84130822,7.55107229 6.67051973,7.43410143 6.46497546,7.2893512 C6.25946441,7.14469799 6.12512631,7.05084965 6.0618947,7.00767683 C5.48636409,6.61381779 4.6578738,6.05221536 3.57639061,5.32283719 C2.49494065,4.59345902 1.84670864,4.15481021 1.63166135,4.00711711 C1.23961206,3.74862994 0.869526041,3.39312519 0.521768789,2.94069987 C0.173978308,2.48830689 0,2.06809142 0,1.68031215 C0,1.20023682 0.131214733,0.800136322 0.393644198,0.480042986 C0.65610689,0.160014329 1.03084474,0 1.51779128,0 L15.4820758,0 Z" id="email-icon" fill="#000000" fill-rule="nonzero"></path>
    </g>
</svg>